Course Code:DATA 601; Homework 4 - Data Visualization
…
#To get to know more than or equal to 100  
filter(testdata, people_vaccinated >= 100)

## # A tibble: 3,416 x 15
##    country iso_code date       total_vaccinations people_vaccinated
##    <chr>   <chr>    <date>                  <dbl>             <dbl>
##  1 Albania ALB      2021-01-12                128               128
##  2 Albania ALB      2021-01-13                188               188
##  3 Albania ALB      2021-01-14                266               266
##  4 Albania ALB      2021-01-15                308               308
##  5 Albania ALB      2021-01-16                369               369
##  6 Albania ALB      2021-01-17                405               405
##  7 Albania ALB      2021-01-18                447               447
##  8 Albania ALB      2021-01-19                483               483
##  9 Albania ALB      2021-01-20                519               519
## 10 Albania ALB      2021-01-21                549               549
## #  with 3,406 more rows, and 10 more variables: people_fully_vaccinated <dbl>,
## #   daily_vaccinations_raw <dbl>, daily_vaccinations <dbl>,
## #   total_vaccinations_per_hundred <dbl>, people_vaccinated_per_hundred <dbl>,
## #   people_fully_vaccinated_per_hundred <dbl>,
## #   daily_vaccinations_per_million <dbl>, vaccines <chr>, source_name <chr>,
## #   source_website <chr>

arrange(testdata, date, source_name)

## # A tibble: 6,108 x 15
##    country          iso_code date       total_vaccinations people_vaccinated
##    <chr>            <chr>    <date>                  <dbl>             <dbl>
##  1 England          <NA>     2020-12-13              55576             55576
##  2 Northern Ireland <NA>     2020-12-13               3623              3623
##  3 Scotland         <NA>     2020-12-13              19009             19009
##  4 United Kingdom   GBR      2020-12-13              86465             86465
##  5 Wales            <NA>     2020-12-13               8257              8257
##  6 England          <NA>     2020-12-14                 NA                NA
##  7 Northern Ireland <NA>     2020-12-14                 NA                NA
##  8 Scotland         <NA>     2020-12-14                 NA                NA
##  9 United Kingdom   GBR      2020-12-14                 NA                NA
## 10 Wales            <NA>     2020-12-14                 NA                NA
## #  with 6,098 more rows, and 10 more variables: people_fully_vaccinated <dbl>,
## #   daily_vaccinations_raw <dbl>, daily_vaccinations <dbl>,
## #   total_vaccinations_per_hundred <dbl>, people_vaccinated_per_hundred <dbl>,
## #   people_fully_vaccinated_per_hundred <dbl>,
## #   daily_vaccinations_per_million <dbl>, vaccines <chr>, source_name <chr>,
## #   source_website <chr>

summarytest <- group_by(testdata, date, vaccines, source_name)
summarise(summarytest, mean_testing = mean(people_vaccinated, na.rm = TRUE))

## `summarise()` has grouped output by 'date', 'vaccines'. You can override using the `.groups` argument.

## # A tibble: 4,617 x 4
## # Groups:   date, vaccines [1,573]
##    date       vaccines                 source_name                  mean_testing
##    <date>     <chr>                    <chr>                               <dbl>
##  1 2020-12-13 Oxford/AstraZeneca, Pfi Government of the United Ki        34586
##  2 2020-12-14 Moderna, Pfizer/BioNTech Official data from province          NaN
##  3 2020-12-14 Oxford/AstraZeneca, Pfi Government of the United Ki          NaN
##  4 2020-12-15 EpiVacCorona, Sputnik V  Official data from local go        28500
##  5 2020-12-15 Moderna, Pfizer/BioNTech Official data from province          NaN
##  6 2020-12-15 Oxford/AstraZeneca, Pfi Government of the United Ki          NaN
##  7 2020-12-15 Sinopharm/Beijing, Sino National Health Commission            NaN
##  8 2020-12-16 EpiVacCorona, Sputnik V  Official data from local go          NaN
##  9 2020-12-16 Moderna, Pfizer/BioNTech Official data from province          NaN
## 10 2020-12-16 Oxford/AstraZeneca, Pfi Government of the United Ki          NaN
## #  with 4,607 more rows
…
